finale.vcd
$date
    Jun  6, 2017  15:16:48
$end
$version
    TOOL:	ncsim(64)	14.20-s003
$end
$timescale
    1 ns
$end

$scope module top $end
$var reg       1 !    clk  $end

$scope module o1 $end
$var wire      1 "    clk  $end
$var reg       1 #    mode  $end
$var reg       1 $    load  $end
$var reg       1 %    rst  $end
$var reg       4 &    d [3:0] $end
$var reg       1 '    q  $end

$scope clocking ad $end
$var reg       1 (    mode  $end
$var reg       1 )    load  $end
$var reg       4 *    d [3:0] $end
$var reg       1 +    q  $end
$upscope $end

$upscope $end


$scope module dut $end
$var wire      1 ,    mode  $end
$var wire      1 -    load  $end
$var wire      1 .    rst  $end
$var wire      1 /    clk  $end
$var wire      4 0    d [3:0] $end
$var reg       1 1    q  $end
$var reg       4 2    i [3:0] $end
$upscope $end

$upscope $end

$enddefinitions $end
$dumpvars
0!
0"
x#
x$
0%
bx &
x'
x(
x)
bx *
x+
x,
x-
0.
0/
bx 0
x1
bx 2
$end
#5
1!
1/
1"
#7
0#
0(
1$
1)
b1111 &
b1111 *
b1111 0
1-
0,
#10
0!
0/
0"
#11
1%
1.
b0 2
01
0'
#15
1!
1/
1"
0+
#17
b10 &
b10 *
b10 0
#20
0!
0/
0"
#23
0%
0.
#25
1!
1/
1"
b10 2
#27
1#
1(
b1100 &
b1100 *
b1100 0
1,
#30
0!
0/
0"
#35
1!
1/
1"
b1100 2
#37
0#
0(
0$
0)
b1001 &
b1001 *
b1001 0
0-
0,
#40
0!
0/
0"
#45
1!
1/
1"
b0 2
#47
1$
1)
b1101 &
b1101 *
b1101 0
1-
#50
0!
0/
0"
#55
1!
1/
1"
b1101 2
#57
0$
0)
0-
#60
0!
0/
0"
#65
1!
1/
1"
b0 2
11
1'
#67
1#
1(
1$
1)
b10 &
b10 *
b10 0
1-
1,
#70
0!
0/
0"
#75
1!
1/
1"
1+
b10 2
#77
0$
0)
b1 &
b1 *
b1 0
0-
#80
0!
0/
0"
#85
1!
1/
1"
b100 2
01
0'
#87
0#
0(
1$
1)
b1010 &
b1010 *
b1010 0
1-
0,
#90
0!
0/
0"
#95
1!
1/
1"
0+
b1010 2
#97
0$
0)
b110 &
b110 *
b110 0
0-
#100
0!
0/
0"
#105
1!
1/
1"
b0 2
#107
1#
1(
1$
1)
b1001 &
b1001 *
b1001 0
1-
1,
#110
0!
0/
0"
#115
1!
1/
1"
b1001 2
#117
0#
0(
0$
0)
b1000 &
b1000 *
b1000 0
0-
0,
#120
0!
0/
0"
#125
1!
1/
1"
b0 2
11
1'
#127
1#
1(
1$
1)
b100 &
b100 *
b100 0
1-
1,
#130
0!
0/
0"
#135
1!
1/
1"
1+
b100 2
#137
0#
0(
b1110 &
b1110 *
b1110 0
0,
#140
0!
0/
0"
#145
1!
1/
1"
b1110 2
#147
1#
1(
0$
0)
b1010 &
b1010 *
b1010 0
0-
1,
#150
0!
0/
0"
#155
1!
1/
1"
b0 2
#157
0#
0(
1$
1)
b1100 &
b1100 *
b1100 0
1-
0,
#160
0!
0/
0"
#165
1!
1/
1"
b1100 2
#167
1#
1(
b1 &
b1 *
b1 0
1,
#170
0!
0/
0"
#175
1!
1/
1"
b1 2
#177
0$
0)
b0 &
b0 *
b0 0
0-
#180
0!
0/
0"
#185
1!
1/
1"
b10 2
01
0'
#187
0#
0(
1$
1)
b1111 &
b1111 *
b1111 0
1-
0,
#190
0!
0/
0"
#195
1!
1/
1"
0+
b1111 2
#197
0$
0)
b11 &
b11 *
b11 0
0-
#200
0!
0/
0"
#205
1!
1/
1"
b0 2
11
1'
#207
1#
1(
b1001 &
b1001 *
b1001 0
1,
#210
0!
0/
0"
#215
1!
1/
1"
1+
b1 2
01
0'
#217
0#
0(
b11 &
b11 *
b11 0
0,
#220
0!
0/
0"
#225
1!
1/
1"
0+
b0 2
11
1'
#227
b111 &
b111 *
b111 0
#230
0!
0/
0"
#235
1!
1/
1"
1+
b1 2
01
0'
#237
1#
1(
1$
1)
b1001 &
b1001 *
b1001 0
1-
1,
#240
0!
0/
0"
#245
1!
1/
1"
0+
b1001 2
#247
0$
0)
b111 &
b111 *
b111 0
0-
#250
0!
0/
0"
#255
1!
1/
1"
b0 2
11
1'
#257
0#
0(
1$
1)
b1001 &
b1001 *
b1001 0
1-
0,
#260
0!
0/
0"
#265
1!
1/
1"
1+
b1001 2
#267
1#
1(
0$
0)
b100 &
b100 *
b100 0
0-
1,
#270
0!
0/
0"
#275
1!
1/
1"
b0 2
#277
0#
0(
1$
1)
b1000 &
b1000 *
b1000 0
1-
0,
#280
0!
0/
0"
#285
1!
1/
1"
b1000 2
#287
0$
0)
b1110 &
b1110 *
b1110 0
0-
#290
0!
0/
0"
#295
1!
1/
1"
b0 2
01
0'
#297
b0 &
b0 *
b0 0
#300
0!
0/
0"
#305
1!
1/
1"
0+
b1 2
#307
b1111 &
b1111 *
b1111 0
#310
0!
0/
0"
#315
1!
1/
1"
b0 2
11
1'
#317
1#
1(
b10 &
b10 *
b10 0
1,
#320
0!
0/
0"
#325
1!
1/
1"
1+
b1 2
01
0'
#327
0#
0(
1$
1)
b111 &
b111 *
b111 0
1-
0,
#330
0!
0/
0"
#335
1!
1/
1"
0+
b111 2
#337
b110 &
b110 *
b110 0
#340
0!
0/
0"
#345
1!
1/
1"
b110 2
#347
0$
0)
b0 &
b0 *
b0 0
0-
#350
0!
0/
0"
#355
1!
1/
1"
b0 2
#357
1#
1(
1$
1)
b10 &
b10 *
b10 0
1-
1,
#360
0!
0/
0"
#365
1!
1/
1"
b10 2
#367
0#
0(
0$
0)
b1001 &
b1001 *
b1001 0
0-
0,
#370
0!
0/
0"
#375
1!
1/
1"
b0 2
#377
1#
1(
1$
1)
b100 &
b100 *
b100 0
1-
1,
#380
0!
0/
0"
#385
1!
1/
1"
b100 2
#387
0#
0(
0$
0)
b1000 &
b1000 *
b1000 0
0-
0,
#390
0!
0/
0"
#395
1!
1/
1"
b0 2
#397
1#
1(
1$
1)
b1101 &
b1101 *
b1101 0
1-
1,
#400
0!
0/
0"
#405
1!
1/
1"
b1101 2
#407
0#
0(
0$
0)
b0 &
b0 *
b0 0
0-
0,
#410
0!
0/
0"
#415
1!
1/
1"
b0 2
11
1'
#417
b1110 &
b1110 *
b1110 0
#420
0!
0/
0"
#425
1!
1/
1"
1+
b1 2
01
0'
#427
1#
1(
b0 &
b0 *
b0 0
1,
#430
0!
0/
0"
#435
1!
1/
1"
0+
b10 2
#437
0#
0(
b1 &
b1 *
b1 0
0,
#440
0!
0/
0"
#445
1!
1/
1"
b0 2
#447
b10 &
b10 *
b10 0
#450
0!
0/
0"
#455
1!
1/
1"
b1 2
#457
1#
1(
1$
1)
b1011 &
b1011 *
b1011 0
1-
1,
#460
0!
0/
0"
#465
1!
1/
1"
b1011 2
#467
b1111 &
b1111 *
b1111 0
#470
0!
0/
0"
#475
1!
1/
1"
b1111 2
#477
0$
0)
b100 &
b100 *
b100 0
0-
#480
0!
0/
0"
#485
1!
1/
1"
b0 2
11
1'
#487
0#
0(
1$
1)
b101 &
b101 *
b101 0
1-
0,
#490
0!
0/
0"
#495
1!
1/
1"
1+
b101 2
#497
b110 &
b110 *
b110 0
#500
0!
0/
0"
#505
1!
1/
1"
b110 2
#507
b1000 &
b1000 *
b1000 0
#510
0!
0/
0"
#515
1!
1/
1"
b1000 2
#517
1#
1(
b1001 &
b1001 *
b1001 0
1,
#520
0!
0/
0"
#525
1!
1/
1"
b1001 2
#527
0#
0(
0$
0)
b1000 &
b1000 *
b1000 0
0-
0,
#530
0!
0/
0"
#535
1!
1/
1"
b0 2
#537
1$
1)
b10 &
b10 *
b10 0
1-
#540
0!
0/
0"
#545
1!
1/
1"
b10 2
#547
b1000 &
b1000 *
b1000 0
#550
0!
0/
0"
#555
1!
1/
1"
b1000 2
#557
b11 &
b11 *
b11 0
#560
0!
0/
0"
#565
1!
1/
1"
b11 2
#567
b1111 &
b1111 *
b1111 0
#570
0!
0/
0"
#575
1!
1/
1"
b1111 2
#577
1#
1(
b10 &
b10 *
b10 0
1,
#580
0!
0/
0"
#585
1!
1/
1"
b10 2
#587
0$
0)
b111 &
b111 *
b111 0
0-
#590
0!
0/
0"
#595
1!
1/
1"
b100 2
01
0'
#597
0#
0(
b1010 &
b1010 *
b1010 0
0,
#600
0!
0/
0"
#605
1!
1/
1"
0+
b0 2
#607
b1100 &
b1100 *
b1100 0
#610
0!
0/
0"
#615
1!
1/
1"
b1 2
#617
1$
1)
b111 &
b111 *
b111 0
1-
#620
0!
0/
0"
#625
1!
1/
1"
b111 2
#627
1#
1(
0$
0)
b101 &
b101 *
b101 0
0-
1,
#630
0!
0/
0"
#635
1!
1/
1"
b0 2
#637
b1011 &
b1011 *
b1011 0
#640
0!
0/
0"
#645
1!
1/
1"
b1 2
#647
0#
0(
1$
1)
1-
0,
#650
0!
0/
0"
#655
1!
1/
1"
b1011 2
#657
1#
1(
b111 &
b111 *
b111 0
1,
#660
0!
0/
0"
#665
1!
1/
1"
b111 2
#667
b1111 &
b1111 *
b1111 0
#670
0!
0/
0"
#675
1!
1/
1"
b1111 2
#677
b100 &
b100 *
b100 0
#680
0!
0/
0"
#685
1!
1/
1"
b100 2
#687
0#
0(
b1110 &
b1110 *
b1110 0
0,
#690
0!
0/
0"
#695
1!
1/
1"
b1110 2
#697
1#
1(
b11 &
b11 *
b11 0
1,
#700
0!
0/
0"
#705
1!
1/
1"
b11 2
#707
0$
0)
b10 &
b10 *
b10 0
0-
#710
0!
0/
0"
#715
1!
1/
1"
b1000 2
#717
0#
0(
b1100 &
b1100 *
b1100 0
0,
#720
0!
0/
0"
#725
1!
1/
1"
b0 2
#727
1#
1(
b10 &
b10 *
b10 0
1,
#730
0!
0/
0"
#735
1!
1/
1"
b1 2
#737
b1111 &
b1111 *
b1111 0
#740
0!
0/
0"
#745
1!
1/
1"
b10 2
#747
0#
0(
b1000 &
b1000 *
b1000 0
0,
#750
0!
0/
0"
#755
1!
1/
1"
b0 2
#757
b1 &
b1 *
b1 0
#760
0!
0/
0"
#765
1!
1/
1"
b1 2
#767
1#
1(
b110 &
b110 *
b110 0
1,
#770
0!
0/
0"
#775
1!
1/
1"
b10 2
#777
0#
0(
b100 &
b100 *
b100 0
0,
#780
0!
0/
0"
#785
1!
1/
1"
b0 2
#787
1#
1(
1$
1)
b10 &
b10 *
b10 0
1-
1,
#790
0!
0/
0"
#795
1!
1/
1"
b10 2
#797
b111 &
b111 *
b111 0
#800
0!
0/
0"
#805
1!
1/
1"
b111 2
#807
0#
0(
b1110 &
b1110 *
b1110 0
0,
#810
0!
0/
0"
#815
1!
1/
1"
b1110 2
#817
1#
1(
0$
0)
b110 &
b110 *
b110 0
0-
1,
#820
0!
0/
0"
#825
1!
1/
1"
b0 2
11
1'
#827
1$
1)
b1010 &
b1010 *
b1010 0
1-
#830
0!
0/
0"
#835
1!
1/
1"
1+
b1010 2
#837
0#
0(
b10 &
b10 *
b10 0
0,
#840
0!
0/
0"
#845
1!
1/
1"
b10 2
#847
1#
1(
0$
0)
b111 &
b111 *
b111 0
0-
1,
#850
0!
0/
0"
#855
1!
1/
1"
b100 2
01
0'
#857
b10 &
b10 *
b10 0
#860
0!
0/
0"
#865
1!
1/
1"
0+
b0 2
#867
1$
1)
b111 &
b111 *
b111 0
1-
#870
0!
0/
0"
#875
1!
1/
1"
b111 2
#877
0#
0(
0$
0)
b11 &
b11 *
b11 0
0-
0,
#880
0!
0/
0"
#885
1!
1/
1"
b0 2
11
1'
#887
1$
1)
b1001 &
b1001 *
b1001 0
1-
#890
0!
0/
0"
#895
1!
1/
1"
1+
b1001 2
#897
1#
1(
b111 &
b111 *
b111 0
1,
#900
0!
0/
0"
#905
1!
1/
1"
b111 2
#907
b110 &
b110 *
b110 0
#910
0!
0/
0"
#915
1!
1/
1"
b110 2
#917
0#
0(
0$
0)
b11 &
b11 *
b11 0
0-
0,
#920
0!
0/
0"
#925
1!
1/
1"
b0 2
01
0'
#927
1$
1)
b0 &
b0 *
b0 0
1-
#930
0!
0/
0"
#935
1!
1/
1"
0+
#937
1#
1(
0$
0)
b1111 &
b1111 *
b1111 0
0-
1,
#940
0!
0/
0"
#945
1!
1/
1"
b1 2
#947
0#
0(
b1110 &
b1110 *
b1110 0
0,
#950
0!
0/
0"
#955
1!
1/
1"
b0 2
11
1'
#957
1#
1(
1$
1)
b1100 &
b1100 *
b1100 0
1-
1,
#960
0!
0/
0"
#965
1!
1/
1"
1+
b1100 2
#967
0#
0(
0$
0)
b111 &
b111 *
b111 0
0-
0,
#970
0!
0/
0"
#975
1!
1/
1"
b0 2
01
0'
#977
1#
1(
b100 &
b100 *
b100 0
1,
#980
0!
0/
0"
#985
1!
1/
1"
0+
b1 2
#987
1$
1)
b1000 &
b1000 *
b1000 0
1-
#990
0!
0/
0"
#995
1!
1/
1"
b1000 2
